-- Merging decision tree log ---
manifest
ADDED from /Users/nitin/Desktop/Prvn_Fn/TestingDemo/DemoLiveApp/android/app/src/main/AndroidManifest.xml:1:1-30:12
INJECTED from /Users/nitin/Desktop/Prvn_Fn/TestingDemo/DemoLiveApp/android/app/src/main/AndroidManifest.xml:1:1-30:12
INJECTED from /Users/nitin/Desktop/Prvn_Fn/TestingDemo/DemoLiveApp/android/app/src/main/AndroidManifest.xml:1:1-30:12
INJECTED from /Users/nitin/Desktop/Prvn_Fn/TestingDemo/DemoLiveApp/android/app/src/main/AndroidManifest.xml:1:1-30:12
MERGED from [:@react-native-community_netinfo] /Users/nitin/Desktop/Prvn_Fn/TestingDemo/DemoLiveApp/node_modules/@react-native-community/netinfo/android/build/intermediates/library_manifest/debug/AndroidManifest.xml:2:1-11:12
MERGED from [:react-native-gesture-handler] /Users/nitin/Desktop/Prvn_Fn/TestingDemo/DemoLiveApp/node_modules/react-native-gesture-handler/android/build/intermediates/library_manifest/debug/AndroidManifest.xml:2:1-11:12
MERGED from [:@react-native-community_async-storage] /Users/nitin/Desktop/Prvn_Fn/TestingDemo/DemoLiveApp/node_modules/@react-native-community/async-storage/android/build/intermediates/library_manifest/debug/AndroidManifest.xml:2:1-9:12
MERGED from [:react-native-vector-icons] /Users/nitin/Desktop/Prvn_Fn/TestingDemo/DemoLiveApp/node_modules/react-native-vector-icons/android/build/intermediates/library_manifest/debug/AndroidManifest.xml:2:1-11:12
MERGED from [:react-native-i18n] /Users/nitin/Desktop/Prvn_Fn/TestingDemo/DemoLiveApp/node_modules/react-native-i18n/android/build/intermediates/library_manifest/debug/AndroidManifest.xml:2:1-9:12
MERGED from [com.facebook.react:react-native:0.59.9] /Users/nitin/.gradle/caches/transforms-1/files-1.1/jetified-react-native-0.59.9.aar/066f5e2a737c94489606d89098049afd/AndroidManifest.xml:2:1-13:12
MERGED from [androidx.appcompat:appcompat:1.0.0] /Users/nitin/.gradle/caches/transforms-1/files-1.1/appcompat-1.0.0.aar/629d888926e95cac3f9d6cc34cc264e4/AndroidManifest.xml:17:1-22:12
MERGED from [androidx.fragment:fragment:1.0.0] /Users/nitin/.gradle/caches/transforms-1/files-1.1/fragment-1.0.0.aar/a702f3b9521726533fa0ebe85273a625/AndroidManifest.xml:17:1-22:12
MERGED from [androidx.vectordrawable:vectordrawable-animated:1.0.0] /Users/nitin/.gradle/caches/transforms-1/files-1.1/vectordrawable-animated-1.0.0.aar/1e15d6be45d051aaed5927ab6e1a6ea0/AndroidManifest.xml:17:1-22:12
MERGED from [androidx.legacy:legacy-support-core-ui:1.0.0] /Users/nitin/.gradle/caches/transforms-1/files-1.1/legacy-support-core-ui-1.0.0.aar/43f4e7028e49d288f434f4585791e3f8/AndroidManifest.xml:17:1-22:12
MERGED from [androidx.legacy:legacy-support-core-utils:1.0.0] /Users/nitin/.gradle/caches/transforms-1/files-1.1/legacy-support-core-utils-1.0.0.aar/bae36d12f3ffc5fe7b1146e5d3f3c8d3/AndroidManifest.xml:17:1-22:12
MERGED from [androidx.vectordrawable:vectordrawable:1.0.0] /Users/nitin/.gradle/caches/transforms-1/files-1.1/vectordrawable-1.0.0.aar/1ae8e9405c6143d8d3568206861c0382/AndroidManifest.xml:17:1-22:12
MERGED from [androidx.loader:loader:1.0.0] /Users/nitin/.gradle/caches/transforms-1/files-1.1/loader-1.0.0.aar/1d202c782e90138646c67cbb112eb937/AndroidManifest.xml:17:1-22:12
MERGED from [androidx.viewpager:viewpager:1.0.0] /Users/nitin/.gradle/caches/transforms-1/files-1.1/viewpager-1.0.0.aar/de58ad2128527d0e5159a402afd714a5/AndroidManifest.xml:17:1-22:12
MERGED from [androidx.coordinatorlayout:coordinatorlayout:1.0.0] /Users/nitin/.gradle/caches/transforms-1/files-1.1/coordinatorlayout-1.0.0.aar/a1c96facff74c8a0298d39cf69e35165/AndroidManifest.xml:17:1-22:12
MERGED from [androidx.drawerlayout:drawerlayout:1.0.0] /Users/nitin/.gradle/caches/transforms-1/files-1.1/drawerlayout-1.0.0.aar/4064035a2d5b3c17ad9dc39036c1f047/AndroidManifest.xml:17:1-22:12
MERGED from [androidx.slidingpanelayout:slidingpanelayout:1.0.0] /Users/nitin/.gradle/caches/transforms-1/files-1.1/slidingpanelayout-1.0.0.aar/af71c600c534cb340bab29f29fa69d15/AndroidManifest.xml:17:1-22:12
MERGED from [androidx.customview:customview:1.0.0] /Users/nitin/.gradle/caches/transforms-1/files-1.1/customview-1.0.0.aar/90d1f63d043213178204174d1a436c29/AndroidManifest.xml:17:1-22:12
MERGED from [androidx.swiperefreshlayout:swiperefreshlayout:1.0.0] /Users/nitin/.gradle/caches/transforms-1/files-1.1/swiperefreshlayout-1.0.0.aar/048102a824b2da2c2c16ef7b76ec3e6f/AndroidManifest.xml:17:1-22:12
MERGED from [androidx.asynclayoutinflater:asynclayoutinflater:1.0.0] /Users/nitin/.gradle/caches/transforms-1/files-1.1/asynclayoutinflater-1.0.0.aar/2c28fbe645e36b283f84269505213316/AndroidManifest.xml:17:1-22:12
MERGED from [androidx.core:core:1.0.0] /Users/nitin/.gradle/caches/transforms-1/files-1.1/core-1.0.0.aar/5c8d24e22053cb7316a45169b7721ed3/AndroidManifest.xml:17:1-24:12
MERGED from [androidx.versionedparcelable:versionedparcelable:1.0.0] /Users/nitin/.gradle/caches/transforms-1/files-1.1/versionedparcelable-1.0.0.aar/9c8c3d6e4cc6f39e0effc0cadbbad868/AndroidManifest.xml:17:1-25:12
MERGED from [androidx.cursoradapter:cursoradapter:1.0.0] /Users/nitin/.gradle/caches/transforms-1/files-1.1/cursoradapter-1.0.0.aar/a3f60727a91ad0a9840f5016689f842d/AndroidManifest.xml:17:1-22:12
MERGED from [androidx.lifecycle:lifecycle-runtime:2.0.0] /Users/nitin/.gradle/caches/transforms-1/files-1.1/lifecycle-runtime-2.0.0.aar/caea3ffdde209442b664d5854598addf/AndroidManifest.xml:17:1-22:12
MERGED from [androidx.documentfile:documentfile:1.0.0] /Users/nitin/.gradle/caches/transforms-1/files-1.1/documentfile-1.0.0.aar/a9379a2603ad77e7e12af7fd177d7f3b/AndroidManifest.xml:17:1-22:12
MERGED from [androidx.localbroadcastmanager:localbroadcastmanager:1.0.0] /Users/nitin/.gradle/caches/transforms-1/files-1.1/localbroadcastmanager-1.0.0.aar/91f76552998121dad6fcc06ae69c96dc/AndroidManifest.xml:17:1-22:12
MERGED from [androidx.print:print:1.0.0] /Users/nitin/.gradle/caches/transforms-1/files-1.1/print-1.0.0.aar/e9d9cee5ec1a1dc4ff1d98e47acecdde/AndroidManifest.xml:17:1-22:12
MERGED from [androidx.lifecycle:lifecycle-viewmodel:2.0.0] /Users/nitin/.gradle/caches/transforms-1/files-1.1/lifecycle-viewmodel-2.0.0.aar/49546d5da6707e78da85b61544005758/AndroidManifest.xml:17:1-22:12
MERGED from [androidx.lifecycle:lifecycle-livedata:2.0.0] /Users/nitin/.gradle/caches/transforms-1/files-1.1/lifecycle-livedata-2.0.0.aar/6d859fece252ef8b05b2a50d47c6c8b4/AndroidManifest.xml:17:1-22:12
MERGED from [androidx.lifecycle:lifecycle-livedata-core:2.0.0] /Users/nitin/.gradle/caches/transforms-1/files-1.1/lifecycle-livedata-core-2.0.0.aar/ec6e4a704fd876165754179a30464225/AndroidManifest.xml:17:1-22:12
MERGED from [androidx.arch.core:core-runtime:2.0.0] /Users/nitin/.gradle/caches/transforms-1/files-1.1/core-runtime-2.0.0.aar/5ca0b9f516aefc4c6a491c0a8dac3e88/AndroidManifest.xml:17:1-22:12
MERGED from [androidx.interpolator:interpolator:1.0.0] /Users/nitin/.gradle/caches/transforms-1/files-1.1/interpolator-1.0.0.aar/6a7ce81132e050baa66bc6c0e9cc8e17/AndroidManifest.xml:17:1-22:12
MERGED from [com.facebook.fresco:fresco:1.10.0] /Users/nitin/.gradle/caches/transforms-1/files-1.1/jetified-fresco-1.10.0.aar/3faec986edda87638366335e61c9dccc/AndroidManifest.xml:2:1-9:12
MERGED from [com.facebook.fresco:imagepipeline-okhttp3:1.10.0] /Users/nitin/.gradle/caches/transforms-1/files-1.1/imagepipeline-okhttp3-1.10.0.aar/98a2b9247d8bc5810ad0cd59eaae85eb/AndroidManifest.xml:2:1-9:12
MERGED from [com.facebook.fresco:drawee:1.10.0] /Users/nitin/.gradle/caches/transforms-1/files-1.1/jetified-drawee-1.10.0.aar/ed4ea5ae18f77bfcb2134d93bd2faeb8/AndroidManifest.xml:2:1-9:12
MERGED from [com.facebook.fresco:imagepipeline:1.10.0] /Users/nitin/.gradle/caches/transforms-1/files-1.1/jetified-imagepipeline-1.10.0.aar/1c718b083edd401e7490fa9ea8827aea/AndroidManifest.xml:2:1-9:12
MERGED from [com.facebook.fresco:imagepipeline-base:1.10.0] /Users/nitin/.gradle/caches/transforms-1/files-1.1/jetified-imagepipeline-base-1.10.0.aar/9785083ddbfebed0c9e27ed2bf33288c/AndroidManifest.xml:2:1-9:12
MERGED from [com.facebook.soloader:soloader:0.6.0] /Users/nitin/.gradle/caches/transforms-1/files-1.1/soloader-0.6.0.aar/7b36e20db6dc5bd9ef1129c38ebb5191/AndroidManifest.xml:2:1-13:12
MERGED from [com.facebook.fresco:fbcore:1.10.0] /Users/nitin/.gradle/caches/transforms-1/files-1.1/jetified-fbcore-1.10.0.aar/8195042f450ed378c468de4471e6518e/AndroidManifest.xml:2:1-9:12
INJECTED from /Users/nitin/Desktop/Prvn_Fn/TestingDemo/DemoLiveApp/android/app/src/main/AndroidManifest.xml:1:1-30:12
INJECTED from /Users/nitin/Desktop/Prvn_Fn/TestingDemo/DemoLiveApp/android/app/src/main/AndroidManifest.xml:1:1-30:12
INJECTED from /Users/nitin/Desktop/Prvn_Fn/TestingDemo/DemoLiveApp/android/app/src/main/AndroidManifest.xml:1:1-30:12
	package
		ADDED from /Users/nitin/Desktop/Prvn_Fn/TestingDemo/DemoLiveApp/android/app/src/main/AndroidManifest.xml:2:3-28
		INJECTED from /Users/nitin/Desktop/Prvn_Fn/TestingDemo/DemoLiveApp/android/app/src/main/AndroidManifest.xml
		INJECTED from /Users/nitin/Desktop/Prvn_Fn/TestingDemo/DemoLiveApp/android/app/src/main/AndroidManifest.xml
	android:versionName
		INJECTED from /Users/nitin/Desktop/Prvn_Fn/TestingDemo/DemoLiveApp/android/app/src/main/AndroidManifest.xml
		ADDED from /Users/nitin/Desktop/Prvn_Fn/TestingDemo/DemoLiveApp/android/app/src/main/AndroidManifest.xml:1:1-30:12
		INJECTED from /Users/nitin/Desktop/Prvn_Fn/TestingDemo/DemoLiveApp/android/app/src/main/AndroidManifest.xml
	android:versionCode
		INJECTED from /Users/nitin/Desktop/Prvn_Fn/TestingDemo/DemoLiveApp/android/app/src/main/AndroidManifest.xml
		ADDED from /Users/nitin/Desktop/Prvn_Fn/TestingDemo/DemoLiveApp/android/app/src/main/AndroidManifest.xml:1:1-30:12
		INJECTED from /Users/nitin/Desktop/Prvn_Fn/TestingDemo/DemoLiveApp/android/app/src/main/AndroidManifest.xml
	xmlns:android
		ADDED from /Users/nitin/Desktop/Prvn_Fn/TestingDemo/DemoLiveApp/android/app/src/main/AndroidManifest.xml:1:11-69
uses-permission#android.permission.INTERNET
ADDED from /Users/nitin/Desktop/Prvn_Fn/TestingDemo/DemoLiveApp/android/app/src/main/AndroidManifest.xml:4:5-67
	android:name
		ADDED from /Users/nitin/Desktop/Prvn_Fn/TestingDemo/DemoLiveApp/android/app/src/main/AndroidManifest.xml:4:22-64
uses-permission#android.permission.ACCESS_NETWORK_STATE
ADDED from /Users/nitin/Desktop/Prvn_Fn/TestingDemo/DemoLiveApp/android/app/src/main/AndroidManifest.xml:5:5-79
MERGED from [:@react-native-community_netinfo] /Users/nitin/Desktop/Prvn_Fn/TestingDemo/DemoLiveApp/node_modules/@react-native-community/netinfo/android/build/intermediates/library_manifest/debug/AndroidManifest.xml:9:5-79
MERGED from [:@react-native-community_netinfo] /Users/nitin/Desktop/Prvn_Fn/TestingDemo/DemoLiveApp/node_modules/@react-native-community/netinfo/android/build/intermediates/library_manifest/debug/AndroidManifest.xml:9:5-79
	android:name
		ADDED from /Users/nitin/Desktop/Prvn_Fn/TestingDemo/DemoLiveApp/android/app/src/main/AndroidManifest.xml:5:22-76
uses-permission#android.permission.SYSTEM_ALERT_WINDOW
ADDED from /Users/nitin/Desktop/Prvn_Fn/TestingDemo/DemoLiveApp/android/app/src/main/AndroidManifest.xml:6:5-77
	android:name
		ADDED from /Users/nitin/Desktop/Prvn_Fn/TestingDemo/DemoLiveApp/android/app/src/main/AndroidManifest.xml:6:22-75
application
ADDED from /Users/nitin/Desktop/Prvn_Fn/TestingDemo/DemoLiveApp/android/app/src/main/AndroidManifest.xml:8:5-28:19
MERGED from [com.facebook.react:react-native:0.59.9] /Users/nitin/.gradle/caches/transforms-1/files-1.1/jetified-react-native-0.59.9.aar/066f5e2a737c94489606d89098049afd/AndroidManifest.xml:11:5-20
MERGED from [com.facebook.react:react-native:0.59.9] /Users/nitin/.gradle/caches/transforms-1/files-1.1/jetified-react-native-0.59.9.aar/066f5e2a737c94489606d89098049afd/AndroidManifest.xml:11:5-20
MERGED from [androidx.core:core:1.0.0] /Users/nitin/.gradle/caches/transforms-1/files-1.1/core-1.0.0.aar/5c8d24e22053cb7316a45169b7721ed3/AndroidManifest.xml:22:5-89
MERGED from [androidx.core:core:1.0.0] /Users/nitin/.gradle/caches/transforms-1/files-1.1/core-1.0.0.aar/5c8d24e22053cb7316a45169b7721ed3/AndroidManifest.xml:22:5-89
MERGED from [androidx.versionedparcelable:versionedparcelable:1.0.0] /Users/nitin/.gradle/caches/transforms-1/files-1.1/versionedparcelable-1.0.0.aar/9c8c3d6e4cc6f39e0effc0cadbbad868/AndroidManifest.xml:22:5-23:19
MERGED from [androidx.versionedparcelable:versionedparcelable:1.0.0] /Users/nitin/.gradle/caches/transforms-1/files-1.1/versionedparcelable-1.0.0.aar/9c8c3d6e4cc6f39e0effc0cadbbad868/AndroidManifest.xml:22:5-23:19
MERGED from [com.facebook.soloader:soloader:0.6.0] /Users/nitin/.gradle/caches/transforms-1/files-1.1/soloader-0.6.0.aar/7b36e20db6dc5bd9ef1129c38ebb5191/AndroidManifest.xml:11:5-20
MERGED from [com.facebook.soloader:soloader:0.6.0] /Users/nitin/.gradle/caches/transforms-1/files-1.1/soloader-0.6.0.aar/7b36e20db6dc5bd9ef1129c38ebb5191/AndroidManifest.xml:11:5-20
	android:appComponentFactory
		ADDED from [androidx.core:core:1.0.0] /Users/nitin/.gradle/caches/transforms-1/files-1.1/core-1.0.0.aar/5c8d24e22053cb7316a45169b7721ed3/AndroidManifest.xml:22:18-86
	android:label
		ADDED from /Users/nitin/Desktop/Prvn_Fn/TestingDemo/DemoLiveApp/android/app/src/main/AndroidManifest.xml:10:7-39
	android:roundIcon
		ADDED from /Users/nitin/Desktop/Prvn_Fn/TestingDemo/DemoLiveApp/android/app/src/main/AndroidManifest.xml:12:7-52
	android:largeHeap
		ADDED from /Users/nitin/Desktop/Prvn_Fn/TestingDemo/DemoLiveApp/android/app/src/main/AndroidManifest.xml:14:9-33
	android:icon
		ADDED from /Users/nitin/Desktop/Prvn_Fn/TestingDemo/DemoLiveApp/android/app/src/main/AndroidManifest.xml:11:7-41
	android:allowBackup
		ADDED from /Users/nitin/Desktop/Prvn_Fn/TestingDemo/DemoLiveApp/android/app/src/main/AndroidManifest.xml:13:7-34
	android:theme
		ADDED from /Users/nitin/Desktop/Prvn_Fn/TestingDemo/DemoLiveApp/android/app/src/main/AndroidManifest.xml:16:7-38
	android:usesCleartextTraffic
		ADDED from /Users/nitin/Desktop/Prvn_Fn/TestingDemo/DemoLiveApp/android/app/src/main/AndroidManifest.xml:15:9-44
	android:name
		ADDED from /Users/nitin/Desktop/Prvn_Fn/TestingDemo/DemoLiveApp/android/app/src/main/AndroidManifest.xml:9:7-38
activity#com.demoliveapp.MainActivity
ADDED from /Users/nitin/Desktop/Prvn_Fn/TestingDemo/DemoLiveApp/android/app/src/main/AndroidManifest.xml:17:7-26:18
	android:label
		ADDED from /Users/nitin/Desktop/Prvn_Fn/TestingDemo/DemoLiveApp/android/app/src/main/AndroidManifest.xml:19:9-41
	android:windowSoftInputMode
		ADDED from /Users/nitin/Desktop/Prvn_Fn/TestingDemo/DemoLiveApp/android/app/src/main/AndroidManifest.xml:21:9-51
	android:configChanges
		ADDED from /Users/nitin/Desktop/Prvn_Fn/TestingDemo/DemoLiveApp/android/app/src/main/AndroidManifest.xml:20:9-79
	android:name
		ADDED from /Users/nitin/Desktop/Prvn_Fn/TestingDemo/DemoLiveApp/android/app/src/main/AndroidManifest.xml:18:9-37
intent-filter#action:name:android.intent.action.MAIN+category:name:android.intent.category.LAUNCHER
ADDED from /Users/nitin/Desktop/Prvn_Fn/TestingDemo/DemoLiveApp/android/app/src/main/AndroidManifest.xml:22:9-25:25
action#android.intent.action.MAIN
ADDED from /Users/nitin/Desktop/Prvn_Fn/TestingDemo/DemoLiveApp/android/app/src/main/AndroidManifest.xml:23:13-65
	android:name
		ADDED from /Users/nitin/Desktop/Prvn_Fn/TestingDemo/DemoLiveApp/android/app/src/main/AndroidManifest.xml:23:21-62
category#android.intent.category.LAUNCHER
ADDED from /Users/nitin/Desktop/Prvn_Fn/TestingDemo/DemoLiveApp/android/app/src/main/AndroidManifest.xml:24:13-73
	android:name
		ADDED from /Users/nitin/Desktop/Prvn_Fn/TestingDemo/DemoLiveApp/android/app/src/main/AndroidManifest.xml:24:23-70
activity#com.facebook.react.devsupport.DevSettingsActivity
ADDED from /Users/nitin/Desktop/Prvn_Fn/TestingDemo/DemoLiveApp/android/app/src/main/AndroidManifest.xml:27:7-84
	android:name
		ADDED from /Users/nitin/Desktop/Prvn_Fn/TestingDemo/DemoLiveApp/android/app/src/main/AndroidManifest.xml:27:17-81
uses-sdk
INJECTED from /Users/nitin/Desktop/Prvn_Fn/TestingDemo/DemoLiveApp/android/app/src/main/AndroidManifest.xml reason: use-sdk injection requested
INJECTED from /Users/nitin/Desktop/Prvn_Fn/TestingDemo/DemoLiveApp/android/app/src/main/AndroidManifest.xml
INJECTED from /Users/nitin/Desktop/Prvn_Fn/TestingDemo/DemoLiveApp/android/app/src/main/AndroidManifest.xml
MERGED from [:@react-native-community_netinfo] /Users/nitin/Desktop/Prvn_Fn/TestingDemo/DemoLiveApp/node_modules/@react-native-community/netinfo/android/build/intermediates/library_manifest/debug/AndroidManifest.xml:5:5-7:41
MERGED from [:@react-native-community_netinfo] /Users/nitin/Desktop/Prvn_Fn/TestingDemo/DemoLiveApp/node_modules/@react-native-community/netinfo/android/build/intermediates/library_manifest/debug/AndroidManifest.xml:5:5-7:41
MERGED from [:react-native-gesture-handler] /Users/nitin/Desktop/Prvn_Fn/TestingDemo/DemoLiveApp/node_modules/react-native-gesture-handler/android/build/intermediates/library_manifest/debug/AndroidManifest.xml:7:5-9:41
MERGED from [:react-native-gesture-handler] /Users/nitin/Desktop/Prvn_Fn/TestingDemo/DemoLiveApp/node_modules/react-native-gesture-handler/android/build/intermediates/library_manifest/debug/AndroidManifest.xml:7:5-9:41
MERGED from [:@react-native-community_async-storage] /Users/nitin/Desktop/Prvn_Fn/TestingDemo/DemoLiveApp/node_modules/@react-native-community/async-storage/android/build/intermediates/library_manifest/debug/AndroidManifest.xml:5:5-7:41
MERGED from [:@react-native-community_async-storage] /Users/nitin/Desktop/Prvn_Fn/TestingDemo/DemoLiveApp/node_modules/@react-native-community/async-storage/android/build/intermediates/library_manifest/debug/AndroidManifest.xml:5:5-7:41
MERGED from [:react-native-vector-icons] /Users/nitin/Desktop/Prvn_Fn/TestingDemo/DemoLiveApp/node_modules/react-native-vector-icons/android/build/intermediates/library_manifest/debug/AndroidManifest.xml:7:5-9:41
MERGED from [:react-native-vector-icons] /Users/nitin/Desktop/Prvn_Fn/TestingDemo/DemoLiveApp/node_modules/react-native-vector-icons/android/build/intermediates/library_manifest/debug/AndroidManifest.xml:7:5-9:41
MERGED from [:react-native-i18n] /Users/nitin/Desktop/Prvn_Fn/TestingDemo/DemoLiveApp/node_modules/react-native-i18n/android/build/intermediates/library_manifest/debug/AndroidManifest.xml:5:5-7:41
MERGED from [:react-native-i18n] /Users/nitin/Desktop/Prvn_Fn/TestingDemo/DemoLiveApp/node_modules/react-native-i18n/android/build/intermediates/library_manifest/debug/AndroidManifest.xml:5:5-7:41
MERGED from [com.facebook.react:react-native:0.59.9] /Users/nitin/.gradle/caches/transforms-1/files-1.1/jetified-react-native-0.59.9.aar/066f5e2a737c94489606d89098049afd/AndroidManifest.xml:7:5-9:41
MERGED from [com.facebook.react:react-native:0.59.9] /Users/nitin/.gradle/caches/transforms-1/files-1.1/jetified-react-native-0.59.9.aar/066f5e2a737c94489606d89098049afd/AndroidManifest.xml:7:5-9:41
MERGED from [androidx.appcompat:appcompat:1.0.0] /Users/nitin/.gradle/caches/transforms-1/files-1.1/appcompat-1.0.0.aar/629d888926e95cac3f9d6cc34cc264e4/AndroidManifest.xml:20:5-44
MERGED from [androidx.appcompat:appcompat:1.0.0] /Users/nitin/.gradle/caches/transforms-1/files-1.1/appcompat-1.0.0.aar/629d888926e95cac3f9d6cc34cc264e4/AndroidManifest.xml:20:5-44
MERGED from [androidx.fragment:fragment:1.0.0] /Users/nitin/.gradle/caches/transforms-1/files-1.1/fragment-1.0.0.aar/a702f3b9521726533fa0ebe85273a625/AndroidManifest.xml:20:5-44
MERGED from [androidx.fragment:fragment:1.0.0] /Users/nitin/.gradle/caches/transforms-1/files-1.1/fragment-1.0.0.aar/a702f3b9521726533fa0ebe85273a625/AndroidManifest.xml:20:5-44
MERGED from [androidx.vectordrawable:vectordrawable-animated:1.0.0] /Users/nitin/.gradle/caches/transforms-1/files-1.1/vectordrawable-animated-1.0.0.aar/1e15d6be45d051aaed5927ab6e1a6ea0/AndroidManifest.xml:20:5-44
MERGED from [androidx.vectordrawable:vectordrawable-animated:1.0.0] /Users/nitin/.gradle/caches/transforms-1/files-1.1/vectordrawable-animated-1.0.0.aar/1e15d6be45d051aaed5927ab6e1a6ea0/AndroidManifest.xml:20:5-44
MERGED from [androidx.legacy:legacy-support-core-ui:1.0.0] /Users/nitin/.gradle/caches/transforms-1/files-1.1/legacy-support-core-ui-1.0.0.aar/43f4e7028e49d288f434f4585791e3f8/AndroidManifest.xml:20:5-44
MERGED from [androidx.legacy:legacy-support-core-ui:1.0.0] /Users/nitin/.gradle/caches/transforms-1/files-1.1/legacy-support-core-ui-1.0.0.aar/43f4e7028e49d288f434f4585791e3f8/AndroidManifest.xml:20:5-44
MERGED from [androidx.legacy:legacy-support-core-utils:1.0.0] /Users/nitin/.gradle/caches/transforms-1/files-1.1/legacy-support-core-utils-1.0.0.aar/bae36d12f3ffc5fe7b1146e5d3f3c8d3/AndroidManifest.xml:20:5-44
MERGED from [androidx.legacy:legacy-support-core-utils:1.0.0] /Users/nitin/.gradle/caches/transforms-1/files-1.1/legacy-support-core-utils-1.0.0.aar/bae36d12f3ffc5fe7b1146e5d3f3c8d3/AndroidManifest.xml:20:5-44
MERGED from [androidx.vectordrawable:vectordrawable:1.0.0] /Users/nitin/.gradle/caches/transforms-1/files-1.1/vectordrawable-1.0.0.aar/1ae8e9405c6143d8d3568206861c0382/AndroidManifest.xml:20:5-44
MERGED from [androidx.vectordrawable:vectordrawable:1.0.0] /Users/nitin/.gradle/caches/transforms-1/files-1.1/vectordrawable-1.0.0.aar/1ae8e9405c6143d8d3568206861c0382/AndroidManifest.xml:20:5-44
MERGED from [androidx.loader:loader:1.0.0] /Users/nitin/.gradle/caches/transforms-1/files-1.1/loader-1.0.0.aar/1d202c782e90138646c67cbb112eb937/AndroidManifest.xml:20:5-44
MERGED from [androidx.loader:loader:1.0.0] /Users/nitin/.gradle/caches/transforms-1/files-1.1/loader-1.0.0.aar/1d202c782e90138646c67cbb112eb937/AndroidManifest.xml:20:5-44
MERGED from [androidx.viewpager:viewpager:1.0.0] /Users/nitin/.gradle/caches/transforms-1/files-1.1/viewpager-1.0.0.aar/de58ad2128527d0e5159a402afd714a5/AndroidManifest.xml:20:5-44
MERGED from [androidx.viewpager:viewpager:1.0.0] /Users/nitin/.gradle/caches/transforms-1/files-1.1/viewpager-1.0.0.aar/de58ad2128527d0e5159a402afd714a5/AndroidManifest.xml:20:5-44
MERGED from [androidx.coordinatorlayout:coordinatorlayout:1.0.0] /Users/nitin/.gradle/caches/transforms-1/files-1.1/coordinatorlayout-1.0.0.aar/a1c96facff74c8a0298d39cf69e35165/AndroidManifest.xml:20:5-44
MERGED from [androidx.coordinatorlayout:coordinatorlayout:1.0.0] /Users/nitin/.gradle/caches/transforms-1/files-1.1/coordinatorlayout-1.0.0.aar/a1c96facff74c8a0298d39cf69e35165/AndroidManifest.xml:20:5-44
MERGED from [androidx.drawerlayout:drawerlayout:1.0.0] /Users/nitin/.gradle/caches/transforms-1/files-1.1/drawerlayout-1.0.0.aar/4064035a2d5b3c17ad9dc39036c1f047/AndroidManifest.xml:20:5-44
MERGED from [androidx.drawerlayout:drawerlayout:1.0.0] /Users/nitin/.gradle/caches/transforms-1/files-1.1/drawerlayout-1.0.0.aar/4064035a2d5b3c17ad9dc39036c1f047/AndroidManifest.xml:20:5-44
MERGED from [androidx.slidingpanelayout:slidingpanelayout:1.0.0] /Users/nitin/.gradle/caches/transforms-1/files-1.1/slidingpanelayout-1.0.0.aar/af71c600c534cb340bab29f29fa69d15/AndroidManifest.xml:20:5-44
MERGED from [androidx.slidingpanelayout:slidingpanelayout:1.0.0] /Users/nitin/.gradle/caches/transforms-1/files-1.1/slidingpanelayout-1.0.0.aar/af71c600c534cb340bab29f29fa69d15/AndroidManifest.xml:20:5-44
MERGED from [androidx.customview:customview:1.0.0] /Users/nitin/.gradle/caches/transforms-1/files-1.1/customview-1.0.0.aar/90d1f63d043213178204174d1a436c29/AndroidManifest.xml:20:5-44
MERGED from [androidx.customview:customview:1.0.0] /Users/nitin/.gradle/caches/transforms-1/files-1.1/customview-1.0.0.aar/90d1f63d043213178204174d1a436c29/AndroidManifest.xml:20:5-44
MERGED from [androidx.swiperefreshlayout:swiperefreshlayout:1.0.0] /Users/nitin/.gradle/caches/transforms-1/files-1.1/swiperefreshlayout-1.0.0.aar/048102a824b2da2c2c16ef7b76ec3e6f/AndroidManifest.xml:20:5-44
MERGED from [androidx.swiperefreshlayout:swiperefreshlayout:1.0.0] /Users/nitin/.gradle/caches/transforms-1/files-1.1/swiperefreshlayout-1.0.0.aar/048102a824b2da2c2c16ef7b76ec3e6f/AndroidManifest.xml:20:5-44
MERGED from [androidx.asynclayoutinflater:asynclayoutinflater:1.0.0] /Users/nitin/.gradle/caches/transforms-1/files-1.1/asynclayoutinflater-1.0.0.aar/2c28fbe645e36b283f84269505213316/AndroidManifest.xml:20:5-44
MERGED from [androidx.asynclayoutinflater:asynclayoutinflater:1.0.0] /Users/nitin/.gradle/caches/transforms-1/files-1.1/asynclayoutinflater-1.0.0.aar/2c28fbe645e36b283f84269505213316/AndroidManifest.xml:20:5-44
MERGED from [androidx.core:core:1.0.0] /Users/nitin/.gradle/caches/transforms-1/files-1.1/core-1.0.0.aar/5c8d24e22053cb7316a45169b7721ed3/AndroidManifest.xml:20:5-44
MERGED from [androidx.core:core:1.0.0] /Users/nitin/.gradle/caches/transforms-1/files-1.1/core-1.0.0.aar/5c8d24e22053cb7316a45169b7721ed3/AndroidManifest.xml:20:5-44
MERGED from [androidx.versionedparcelable:versionedparcelable:1.0.0] /Users/nitin/.gradle/caches/transforms-1/files-1.1/versionedparcelable-1.0.0.aar/9c8c3d6e4cc6f39e0effc0cadbbad868/AndroidManifest.xml:20:5-44
MERGED from [androidx.versionedparcelable:versionedparcelable:1.0.0] /Users/nitin/.gradle/caches/transforms-1/files-1.1/versionedparcelable-1.0.0.aar/9c8c3d6e4cc6f39e0effc0cadbbad868/AndroidManifest.xml:20:5-44
MERGED from [androidx.cursoradapter:cursoradapter:1.0.0] /Users/nitin/.gradle/caches/transforms-1/files-1.1/cursoradapter-1.0.0.aar/a3f60727a91ad0a9840f5016689f842d/AndroidManifest.xml:20:5-44
MERGED from [androidx.cursoradapter:cursoradapter:1.0.0] /Users/nitin/.gradle/caches/transforms-1/files-1.1/cursoradapter-1.0.0.aar/a3f60727a91ad0a9840f5016689f842d/AndroidManifest.xml:20:5-44
MERGED from [androidx.lifecycle:lifecycle-runtime:2.0.0] /Users/nitin/.gradle/caches/transforms-1/files-1.1/lifecycle-runtime-2.0.0.aar/caea3ffdde209442b664d5854598addf/AndroidManifest.xml:20:5-44
MERGED from [androidx.lifecycle:lifecycle-runtime:2.0.0] /Users/nitin/.gradle/caches/transforms-1/files-1.1/lifecycle-runtime-2.0.0.aar/caea3ffdde209442b664d5854598addf/AndroidManifest.xml:20:5-44
MERGED from [androidx.documentfile:documentfile:1.0.0] /Users/nitin/.gradle/caches/transforms-1/files-1.1/documentfile-1.0.0.aar/a9379a2603ad77e7e12af7fd177d7f3b/AndroidManifest.xml:20:5-44
MERGED from [androidx.documentfile:documentfile:1.0.0] /Users/nitin/.gradle/caches/transforms-1/files-1.1/documentfile-1.0.0.aar/a9379a2603ad77e7e12af7fd177d7f3b/AndroidManifest.xml:20:5-44
MERGED from [androidx.localbroadcastmanager:localbroadcastmanager:1.0.0] /Users/nitin/.gradle/caches/transforms-1/files-1.1/localbroadcastmanager-1.0.0.aar/91f76552998121dad6fcc06ae69c96dc/AndroidManifest.xml:20:5-44
MERGED from [androidx.localbroadcastmanager:localbroadcastmanager:1.0.0] /Users/nitin/.gradle/caches/transforms-1/files-1.1/localbroadcastmanager-1.0.0.aar/91f76552998121dad6fcc06ae69c96dc/AndroidManifest.xml:20:5-44
MERGED from [androidx.print:print:1.0.0] /Users/nitin/.gradle/caches/transforms-1/files-1.1/print-1.0.0.aar/e9d9cee5ec1a1dc4ff1d98e47acecdde/AndroidManifest.xml:20:5-44
MERGED from [androidx.print:print:1.0.0] /Users/nitin/.gradle/caches/transforms-1/files-1.1/print-1.0.0.aar/e9d9cee5ec1a1dc4ff1d98e47acecdde/AndroidManifest.xml:20:5-44
MERGED from [androidx.lifecycle:lifecycle-viewmodel:2.0.0] /Users/nitin/.gradle/caches/transforms-1/files-1.1/lifecycle-viewmodel-2.0.0.aar/49546d5da6707e78da85b61544005758/AndroidManifest.xml:20:5-44
MERGED from [androidx.lifecycle:lifecycle-viewmodel:2.0.0] /Users/nitin/.gradle/caches/transforms-1/files-1.1/lifecycle-viewmodel-2.0.0.aar/49546d5da6707e78da85b61544005758/AndroidManifest.xml:20:5-44
MERGED from [androidx.lifecycle:lifecycle-livedata:2.0.0] /Users/nitin/.gradle/caches/transforms-1/files-1.1/lifecycle-livedata-2.0.0.aar/6d859fece252ef8b05b2a50d47c6c8b4/AndroidManifest.xml:20:5-44
MERGED from [androidx.lifecycle:lifecycle-livedata:2.0.0] /Users/nitin/.gradle/caches/transforms-1/files-1.1/lifecycle-livedata-2.0.0.aar/6d859fece252ef8b05b2a50d47c6c8b4/AndroidManifest.xml:20:5-44
MERGED from [androidx.lifecycle:lifecycle-livedata-core:2.0.0] /Users/nitin/.gradle/caches/transforms-1/files-1.1/lifecycle-livedata-core-2.0.0.aar/ec6e4a704fd876165754179a30464225/AndroidManifest.xml:20:5-44
MERGED from [androidx.lifecycle:lifecycle-livedata-core:2.0.0] /Users/nitin/.gradle/caches/transforms-1/files-1.1/lifecycle-livedata-core-2.0.0.aar/ec6e4a704fd876165754179a30464225/AndroidManifest.xml:20:5-44
MERGED from [androidx.arch.core:core-runtime:2.0.0] /Users/nitin/.gradle/caches/transforms-1/files-1.1/core-runtime-2.0.0.aar/5ca0b9f516aefc4c6a491c0a8dac3e88/AndroidManifest.xml:20:5-44
MERGED from [androidx.arch.core:core-runtime:2.0.0] /Users/nitin/.gradle/caches/transforms-1/files-1.1/core-runtime-2.0.0.aar/5ca0b9f516aefc4c6a491c0a8dac3e88/AndroidManifest.xml:20:5-44
MERGED from [androidx.interpolator:interpolator:1.0.0] /Users/nitin/.gradle/caches/transforms-1/files-1.1/interpolator-1.0.0.aar/6a7ce81132e050baa66bc6c0e9cc8e17/AndroidManifest.xml:20:5-44
MERGED from [androidx.interpolator:interpolator:1.0.0] /Users/nitin/.gradle/caches/transforms-1/files-1.1/interpolator-1.0.0.aar/6a7ce81132e050baa66bc6c0e9cc8e17/AndroidManifest.xml:20:5-44
MERGED from [com.facebook.fresco:fresco:1.10.0] /Users/nitin/.gradle/caches/transforms-1/files-1.1/jetified-fresco-1.10.0.aar/3faec986edda87638366335e61c9dccc/AndroidManifest.xml:5:5-7:41
MERGED from [com.facebook.fresco:fresco:1.10.0] /Users/nitin/.gradle/caches/transforms-1/files-1.1/jetified-fresco-1.10.0.aar/3faec986edda87638366335e61c9dccc/AndroidManifest.xml:5:5-7:41
MERGED from [com.facebook.fresco:imagepipeline-okhttp3:1.10.0] /Users/nitin/.gradle/caches/transforms-1/files-1.1/imagepipeline-okhttp3-1.10.0.aar/98a2b9247d8bc5810ad0cd59eaae85eb/AndroidManifest.xml:5:5-7:41
MERGED from [com.facebook.fresco:imagepipeline-okhttp3:1.10.0] /Users/nitin/.gradle/caches/transforms-1/files-1.1/imagepipeline-okhttp3-1.10.0.aar/98a2b9247d8bc5810ad0cd59eaae85eb/AndroidManifest.xml:5:5-7:41
MERGED from [com.facebook.fresco:drawee:1.10.0] /Users/nitin/.gradle/caches/transforms-1/files-1.1/jetified-drawee-1.10.0.aar/ed4ea5ae18f77bfcb2134d93bd2faeb8/AndroidManifest.xml:5:5-7:41
MERGED from [com.facebook.fresco:drawee:1.10.0] /Users/nitin/.gradle/caches/transforms-1/files-1.1/jetified-drawee-1.10.0.aar/ed4ea5ae18f77bfcb2134d93bd2faeb8/AndroidManifest.xml:5:5-7:41
MERGED from [com.facebook.fresco:imagepipeline:1.10.0] /Users/nitin/.gradle/caches/transforms-1/files-1.1/jetified-imagepipeline-1.10.0.aar/1c718b083edd401e7490fa9ea8827aea/AndroidManifest.xml:5:5-7:41
MERGED from [com.facebook.fresco:imagepipeline:1.10.0] /Users/nitin/.gradle/caches/transforms-1/files-1.1/jetified-imagepipeline-1.10.0.aar/1c718b083edd401e7490fa9ea8827aea/AndroidManifest.xml:5:5-7:41
MERGED from [com.facebook.fresco:imagepipeline-base:1.10.0] /Users/nitin/.gradle/caches/transforms-1/files-1.1/jetified-imagepipeline-base-1.10.0.aar/9785083ddbfebed0c9e27ed2bf33288c/AndroidManifest.xml:5:5-7:41
MERGED from [com.facebook.fresco:imagepipeline-base:1.10.0] /Users/nitin/.gradle/caches/transforms-1/files-1.1/jetified-imagepipeline-base-1.10.0.aar/9785083ddbfebed0c9e27ed2bf33288c/AndroidManifest.xml:5:5-7:41
MERGED from [com.facebook.soloader:soloader:0.6.0] /Users/nitin/.gradle/caches/transforms-1/files-1.1/soloader-0.6.0.aar/7b36e20db6dc5bd9ef1129c38ebb5191/AndroidManifest.xml:7:5-9:41
MERGED from [com.facebook.soloader:soloader:0.6.0] /Users/nitin/.gradle/caches/transforms-1/files-1.1/soloader-0.6.0.aar/7b36e20db6dc5bd9ef1129c38ebb5191/AndroidManifest.xml:7:5-9:41
MERGED from [com.facebook.fresco:fbcore:1.10.0] /Users/nitin/.gradle/caches/transforms-1/files-1.1/jetified-fbcore-1.10.0.aar/8195042f450ed378c468de4471e6518e/AndroidManifest.xml:5:5-7:41
MERGED from [com.facebook.fresco:fbcore:1.10.0] /Users/nitin/.gradle/caches/transforms-1/files-1.1/jetified-fbcore-1.10.0.aar/8195042f450ed378c468de4471e6518e/AndroidManifest.xml:5:5-7:41
INJECTED from /Users/nitin/Desktop/Prvn_Fn/TestingDemo/DemoLiveApp/android/app/src/main/AndroidManifest.xml
INJECTED from /Users/nitin/Desktop/Prvn_Fn/TestingDemo/DemoLiveApp/android/app/src/main/AndroidManifest.xml
	android:targetSdkVersion
		INJECTED from /Users/nitin/Desktop/Prvn_Fn/TestingDemo/DemoLiveApp/android/app/src/main/AndroidManifest.xml
		ADDED from /Users/nitin/Desktop/Prvn_Fn/TestingDemo/DemoLiveApp/android/app/src/main/AndroidManifest.xml
		INJECTED from /Users/nitin/Desktop/Prvn_Fn/TestingDemo/DemoLiveApp/android/app/src/main/AndroidManifest.xml
	android:minSdkVersion
		INJECTED from /Users/nitin/Desktop/Prvn_Fn/TestingDemo/DemoLiveApp/android/app/src/main/AndroidManifest.xml
		ADDED from /Users/nitin/Desktop/Prvn_Fn/TestingDemo/DemoLiveApp/android/app/src/main/AndroidManifest.xml
		INJECTED from /Users/nitin/Desktop/Prvn_Fn/TestingDemo/DemoLiveApp/android/app/src/main/AndroidManifest.xml
